{
	"info": {
		"_postman_id": "40167af5-a4a3-47bb-a7ea-526e2c57d285",
		"name": "MockApiCenter",
		"schema": "https://schema.getpostman.com/json/collection/v2.1.0/collection.json"
	},
	"item": [
		{
			"name": "Setup",
			"item": [
				{
					"name": "Get Tenants",
					"event": [
						{
							"listen": "test",
							"script": {
								"exec": [
									"pm.test(\"Status code is 200\", function () {",
									"    pm.response.to.have.status(200);",
									"});",
									""
								],
								"type": "text/javascript"
							}
						}
					],
					"request": {
						"method": "GET",
						"header": [],
						"url": {
							"raw": "{{protocol}}://{{url}}{{port}}{{config_endpoint}}",
							"protocol": "{{protocol}}",
							"host": [
								"{{url}}{{port}}{{config_endpoint}}"
							]
						}
					},
					"response": []
				},
				{
					"name": "Create Tenant",
					"event": [
						{
							"listen": "test",
							"script": {
								"exec": [
									"pm.test(\"Status code is 200\", function () {",
									"    pm.response.to.have.status(200);",
									"});",
									"",
									"pm.test(\"Set Tenant Id\", function () {",
									"    var jsonData = pm.response.text();",
									"    pm.environment.set(\"tenant_id\", jsonData);",
									"});"
								],
								"type": "text/javascript"
							}
						}
					],
					"request": {
						"method": "POST",
						"header": [],
						"url": {
							"raw": "{{protocol}}://{{url}}{{port}}{{config_endpoint}}/tenant/{{new_container_name}}",
							"protocol": "{{protocol}}",
							"host": [
								"{{url}}{{port}}{{config_endpoint}}"
							],
							"path": [
								"tenant",
								"{{new_container_name}}"
							]
						}
					},
					"response": []
				},
				{
					"name": "Get Tenants Again",
					"event": [
						{
							"listen": "test",
							"script": {
								"exec": [
									"pm.test(\"Status code is 200\", function () {",
									"    pm.response.to.have.status(200);",
									"});",
									""
								],
								"type": "text/javascript"
							}
						}
					],
					"request": {
						"method": "GET",
						"header": [],
						"url": {
							"raw": "{{protocol}}://{{url}}{{port}}{{config_endpoint}}",
							"protocol": "{{protocol}}",
							"host": [
								"{{url}}{{port}}{{config_endpoint}}"
							]
						}
					},
					"response": []
				},
				{
					"name": "Add Post Blank",
					"event": [
						{
							"listen": "test",
							"script": {
								"exec": [
									"pm.test(\"Status code is 200\", function () {",
									"    pm.response.to.have.status(200);",
									"});",
									"",
									"pm.test(\"Set Tenant Id\", function () {",
									"    var jsonData = pm.response.text();",
									"    pm.environment.set(\"new_rle_one\", jsonData);",
									"});"
								],
								"type": "text/javascript"
							}
						}
					],
					"request": {
						"method": "POST",
						"header": [
							{
								"key": "Content-Type",
								"value": "application/json"
							}
						],
						"body": {
							"mode": "raw",
							"raw": "{\n\t\"FromUrl\": \"\",\n\t\"FromBody\": \"{\\r\\n\\t\\\"test\\\": \\\"value\\\"\\r\\n}\", \n\t\"Response\": {\n\t\t\"Code\": 201,\n\t\t\"Body\": \"{\\r\\n\\t\\\"FromUrl\\\": \\\"pr1\\/pr2\\/stuff\\\",\\r\\n\\t\\\"Body\\\": \\\"\\\", \\r\\n\\t\\\"Response\\\": {\\r\\n\\t\\t\\\"Code\\\": 123,\\r\\n\\t\\t\\\"Body\\\": \\\"It Bloody Works!!!!\\\"\\r\\n\\t},\\r\\n\\t\\\"RestType\\\": \\\"POST\\\"\\r\\n}\"\n\t},\n\t\"RestType\": \"POST\"\n}"
						},
						"url": {
							"raw": "{{protocol}}://{{url}}{{port}}{{config_endpoint}}/{{tenant_id}}",
							"protocol": "{{protocol}}",
							"host": [
								"{{url}}{{port}}{{config_endpoint}}"
							],
							"path": [
								"{{tenant_id}}"
							]
						}
					},
					"response": []
				},
				{
					"name": "Add Post Simple",
					"request": {
						"method": "POST",
						"header": [
							{
								"key": "Content-Type",
								"value": "application/json"
							}
						],
						"body": {
							"mode": "raw",
							"raw": "{\n\t\"FromUrl\": \"simpleTest\",\n\t\"FromBody\": \"{\\r\\n\\t\\\"test\\\": \\\"value\\\"\\r\\n}\", \n\t\"Response\": {\n\t\t\"Code\": 201,\n\t\t\"Body\": \"Simple PLain TEst test result\"\n\t},\n\t\"RestType\": \"POST\"\n}"
						},
						"url": {
							"raw": "{{protocol}}://{{url}}{{port}}{{config_endpoint}}/{{tenant_id}}",
							"protocol": "{{protocol}}",
							"host": [
								"{{url}}{{port}}{{config_endpoint}}"
							],
							"path": [
								"{{tenant_id}}"
							]
						}
					},
					"response": []
				},
				{
					"name": "Add Get",
					"event": [
						{
							"listen": "test",
							"script": {
								"exec": [
									"pm.test(\"Status code is 200\", function () {",
									"    pm.response.to.have.status(200);",
									"});",
									"",
									"pm.test(\"Set rule two\", function () {",
									"    var jsonData = pm.response.text();",
									"    pm.environment.set(\"new_rule_two\", jsonData);",
									"});"
								],
								"type": "text/javascript"
							}
						}
					],
					"request": {
						"method": "POST",
						"header": [
							{
								"key": "Content-Type",
								"value": "application/json"
							}
						],
						"body": {
							"mode": "raw",
							"raw": "{\n\t\"FromUrl\": \"p1/p2/stuff\",\n\t\"Response\": {\n\t\t\"Code\": 200,\n\t\t\"Body\": \"It Bloody Works!!!!\"\n\t},\n\t\"RestType\": 0\n}"
						},
						"url": {
							"raw": "{{protocol}}://{{url}}{{port}}{{config_endpoint}}/{{tenant_id}}",
							"protocol": "{{protocol}}",
							"host": [
								"{{url}}{{port}}{{config_endpoint}}"
							],
							"path": [
								"{{tenant_id}}"
							]
						}
					},
					"response": []
				},
				{
					"name": "put by id",
					"request": {
						"method": "PUT",
						"header": [
							{
								"key": "Content-Type",
								"value": "application/json"
							}
						],
						"body": {
							"mode": "raw",
							"raw": "{\n    \"id\": {{new_rule_two}},\n\t\"FromUrl\": \"localhost\",\n\t\"Response\": {\n\t\t\"Code\": 200,\n\t\t\"Body\": \"<xml>test</xml>\"\n\t},\n\t\"RestType\": 0\n}"
						},
						"url": {
							"raw": "{{protocol}}://{{url}}{{port}}{{config_endpoint}}/{{tenant_id}}/{{new_rule_two}}",
							"protocol": "{{protocol}}",
							"host": [
								"{{url}}{{port}}{{config_endpoint}}"
							],
							"path": [
								"{{tenant_id}}",
								"{{new_rule_two}}"
							]
						}
					},
					"response": []
				}
			]
		},
		{
			"name": "read mock config tests",
			"item": [
				{
					"name": "Get All",
					"request": {
						"method": "GET",
						"header": [],
						"url": {
							"raw": "{{protocol}}://{{url}}{{port}}{{config_endpoint}}",
							"protocol": "{{protocol}}",
							"host": [
								"{{url}}{{port}}{{config_endpoint}}"
							]
						}
					},
					"response": []
				},
				{
					"name": "Get by id",
					"request": {
						"method": "GET",
						"header": [],
						"url": {
							"raw": "{{protocol}}://{{url}}{{port}}/api/values/{{new_rule_two}}",
							"protocol": "{{protocol}}",
							"host": [
								"{{url}}{{port}}"
							],
							"path": [
								"api",
								"values",
								"{{new_rule_two}}"
							]
						}
					},
					"response": []
				}
			]
		},
		{
			"name": "mock get response tests",
			"item": [
				{
					"name": "Mock Call complex",
					"request": {
						"method": "GET",
						"header": [],
						"url": {
							"raw": "{{protocol}}://{{url}}{{port}}{{mock_endpoint}}/{{new_container_name}}/testing?test1=potatoe&queries=fries",
							"protocol": "{{protocol}}",
							"host": [
								"{{url}}{{port}}{{mock_endpoint}}"
							],
							"path": [
								"{{new_container_name}}",
								"testing"
							],
							"query": [
								{
									"key": "test1",
									"value": "potatoe"
								},
								{
									"key": "queries",
									"value": "fries"
								}
							]
						}
					},
					"response": []
				},
				{
					"name": "Mock Call complex bad mismatch",
					"request": {
						"method": "GET",
						"header": [],
						"url": {
							"raw": "{{protocol}}://{{url}}{{port}}{{mock_endpoint}}{{new_container_name}}/testing?diff=potatoe",
							"protocol": "{{protocol}}",
							"host": [
								"{{url}}{{port}}{{mock_endpoint}}{{new_container_name}}"
							],
							"path": [
								"testing"
							],
							"query": [
								{
									"key": "diff",
									"value": "potatoe"
								}
							]
						}
					},
					"response": []
				},
				{
					"name": "Mock Call simple",
					"request": {
						"method": "GET",
						"header": [],
						"url": {
							"raw": "{{protocol}}://{{url}}{{port}}{{mock_endpoint}}/{{new_container_name}}/localhost",
							"protocol": "{{protocol}}",
							"host": [
								"{{url}}{{port}}{{mock_endpoint}}"
							],
							"path": [
								"{{new_container_name}}",
								"localhost"
							]
						}
					},
					"response": []
				},
				{
					"name": "Mock Call Blank",
					"request": {
						"method": "GET",
						"header": [],
						"url": {
							"raw": "{{protocol}}://{{url}}{{port}}{{mock_endpoint}}/{{new_container_name}}",
							"protocol": "{{protocol}}",
							"host": [
								"{{url}}{{port}}{{mock_endpoint}}"
							],
							"path": [
								"{{new_container_name}}"
							]
						}
					},
					"response": []
				}
			]
		},
		{
			"name": "mock post response test",
			"item": [
				{
					"name": "Mock Post Blank",
					"request": {
						"method": "POST",
						"header": [
							{
								"key": "Content-Type",
								"value": "application/json"
							}
						],
						"body": {
							"mode": "raw",
							"raw": "{\r\n\t\"test\": \"value\"\r\n}"
						},
						"url": {
							"raw": "{{protocol}}://{{url}}{{port}}{{mock_endpoint}}/{{new_container_name}}",
							"protocol": "{{protocol}}",
							"host": [
								"{{url}}{{port}}{{mock_endpoint}}"
							],
							"path": [
								"{{new_container_name}}"
							]
						}
					},
					"response": []
				},
				{
					"name": "Mock Post Simple",
					"request": {
						"method": "POST",
						"header": [
							{
								"key": "Content-Type",
								"value": "application/json"
							}
						],
						"body": {
							"mode": "raw",
							"raw": "{\r\n\t\"test\": \"value\"\r\n}"
						},
						"url": {
							"raw": "{{protocol}}://{{url}}{{port}}{{mock_endpoint}}/{{new_container_name}}/simpleTest",
							"protocol": "{{protocol}}",
							"host": [
								"{{url}}{{port}}{{mock_endpoint}}"
							],
							"path": [
								"{{new_container_name}}",
								"simpleTest"
							]
						}
					},
					"response": []
				},
				{
					"name": "Mock Post Simple Fail Bad Body",
					"request": {
						"method": "POST",
						"header": [
							{
								"key": "Content-Type",
								"value": "application/json"
							}
						],
						"body": {
							"mode": "raw",
							"raw": "{\r\n\t\"test\": \"value bad\"\r\n}"
						},
						"url": {
							"raw": "{{protocol}}://{{url}}{{port}}{{mock_endpoint}}/{{new_container_name}}/simpleTest",
							"protocol": "{{protocol}}",
							"host": [
								"{{url}}{{port}}{{mock_endpoint}}"
							],
							"path": [
								"{{new_container_name}}",
								"simpleTest"
							]
						}
					},
					"response": []
				}
			]
		},
		{
			"name": "delete by id",
			"request": {
				"method": "DELETE",
				"header": [],
				"body": {
					"mode": "raw",
					"raw": ""
				},
				"url": {
					"raw": "{{protocol}}://{{url}}{{port}}/api/values/{{new_rule_two}}",
					"protocol": "{{protocol}}",
					"host": [
						"{{url}}{{port}}"
					],
					"path": [
						"api",
						"values",
						"{{new_rule_two}}"
					]
				}
			},
			"response": []
		}
	]
}